id,email,date,description,type,e_id,start_time,end_time,price
1,Jakob1310@gmail.com,2023-10-24,Go Skiing with friends; can't wait,Event,1,13:15,15:15,$155
2,Jakob1310@gmail.com,2023-11-7,Go-Kart,Entertainment,40,12:45,14:45,$20
3,Jakob1310@gmail.com,2023-11-30,Plan,Entertainment,120,15:50,16:50,$165
